Analisis Pengaruh Luas Lahan dan Kapasitas Produksi Vanilla terhadap kinerja Ekspor Vanilla Indonesia.
…
dimana: - \(Y\) adalah variabel dependen, yaitu nilai ekspor vanila. - \(X_1\) adalah variabel independen pertama, yaitu total ekspor Indonesia. - \(X_2\) adalah variabel independen kedua, yaitu total produksi vanila (dalam ton). - \(X_3\) adalah variabel independen ketiga, yaitu total kuantitas ekspor vanila (dalam ton). - \(X_4\) adalah variabel independen keempat, yaitu luas lahan (dalam hektar). - \(X_5\) adalah variabel independen kelima, yaitu nilai tukar USD/RP. - \(\beta_0, \beta_1, \beta_2, \beta_3, \beta_4, \beta_5\) adalah parameter yang perlu diestimasi. - \(\epsilon\) adalah galat atau kesalahan pengukuran.

Model ini akan digunakan untuk menganalisis bagaimana perubahan dalam variabel independen dapat mempengaruhi variabel dependen. Estimasi parameter akan dilakukan menggunakan data time series dari tahun 2000 hingga 2002. Dengan demikian, penelitian ini dapat memberikan pemahaman yang lebih baik tentang faktor-faktor yang mempengaruhi nilai ekspor vanila Indonesia.

4 Pembahasan

4.1 Pembahasan masalah

Plot dan Data

#impor dataset
read_excel("vanili2.xlsx")

# A tibble: 23 × 7
   tahun lahan prodt  xqty ekspor   kurs        tot
   <dbl> <dbl> <dbl> <dbl>  <dbl>  <dbl>      <dbl>
 1  2000  7900  1681  350.   8503  8422.  48680775 
 2  2001  8539  2198  533   19309 10261.  54089750 
 3  2002  8903  2731  898   19160  9311.  60775124 
 4  2003  9216  1656  926   19275  8577.  71553141.
 5  2004  9216  2252  741   16502  8939.  82744352.
 6  2005  9000  2366  278    5347  9705.  97387628.
 7  2006 13000  3768  499    5892  9159. 113143425.
 8  2007 11000  3177  540    6066  9141  127226102.
 9  2008 12500  3319  421    5565  9699. 152090401.
10  2009 12800  3341  404    5087 10390. 130357799.
# ℹ 13 more rows
…
